<svg xmlns="http://www.w3.org/2000/svg" width="400" height="26.32" viewBox="0 0 400 26.32">
  <path id="bottom_curve" d="M400,26.32H0V0C.056.015,5.711,1.513,16.1,3.77c6.009,1.306,12.372,2.6,18.913,3.841,8.171,1.553,16.645,3.033,25.187,4.4,21.732,3.475,44.033,6.245,66.285,8.23,13.209,1.179,26.547,2.091,39.643,2.712,7.038.333,14.146.589,21.129.76,7.3.178,14.659.269,21.879.269h.023c68.674,0,132.883-8.02,190.843-23.836V26.32Z" fill="#fff"/>
</svg>
