<svg xmlns="http://www.w3.org/2000/svg" width="22" height="21" viewBox="0 0 22 21">
  <g id="crying" transform="translate(-0.05 0.032)">
    <ellipse id="Ellipse_106" data-name="Ellipse 106" cx="11" cy="10.5" rx="11" ry="10.5" transform="translate(0.05 -0.033)" fill="#ffd93b"/>
    <path id="Path_583" data-name="Path 583" d="M164.272,323.689c-.477.36-1.845-1.261-3.813-1.19-1.968-.071-3.3,1.549-3.781,1.19-.559-.314.346-3.376,3.8-3.385C163.925,320.314,164.831,323.374,164.272,323.689Z" transform="translate(-149.807 -307.116)" fill="#3e4347"/>
    <path id="Path_584" data-name="Path 584" d="M84.908,134.372a3.2,3.2,0,0,1-6.233.5A.45.45,0,0,1,79,134.3a7.227,7.227,0,0,0,4.117-2.719.45.45,0,0,1,.646-.083A3.174,3.174,0,0,1,84.908,134.372Z" transform="translate(-75.418 -125.709)" fill="#fff"/>
    <ellipse id="Ellipse_107" data-name="Ellipse 107" cx="1.356" cy="1.356" rx="1.356" ry="1.356" transform="translate(5.452 7.923)" fill="#3e4347"/>
    <path id="Path_586" data-name="Path 586" d="M97.055,238.818a3.143,3.143,0,0,0,1.444-1.043,1.351,1.351,0,0,0-.8-.319c-.633,0-.633.43-1.266.43s-.633-.43-1.266-.43-.632.43-1.264.43a.936.936,0,0,1-.41-.085A3.188,3.188,0,0,0,97.055,238.818Z" transform="translate(-89.479 -227.558)" fill="#65b1ef"/>
    <path id="Path_587" data-name="Path 587" d="M135.192,237.44a1.041,1.041,0,0,1-.222.311,1.362,1.362,0,0,1-1.919,0,1.2,1.2,0,0,1-.235-.337.691.691,0,0,1,.114-.006c.629,0,.629.432,1.264.432C134.722,237.84,134.811,237.541,135.192,237.44Z" transform="translate(-127.201 -227.512)" fill="#59a5e0"/>
    <path id="Path_588" data-name="Path 588" d="M95.2,84.728a9.281,9.281,0,0,0,2.148-1.7c.24-.221,1.686-1.714,1.955-1.924l.084.045a3.958,3.958,0,0,1-1.534,2.45,6.752,6.752,0,0,1-2.622,1.22Z" transform="translate(-91.128 -77.415)" fill="#3e4347"/>
    <path id="Path_589" data-name="Path 589" d="M80.82,292.356a10.345,10.345,0,0,0-1.074-2.5,10.358,10.358,0,0,0-1.074,2.5,1.074,1.074,0,0,0,2.148,0Z" transform="translate(-75.434 -277.877)" fill="#59a5e0"/>
    <path id="Path_590" data-name="Path 590" d="M275.3,134.372a3.2,3.2,0,0,0,6.233.5.45.45,0,0,0-.324-.569,7.227,7.227,0,0,1-4.117-2.719.45.45,0,0,0-.646-.083A3.174,3.174,0,0,0,275.3,134.372Z" transform="translate(-263.614 -125.709)" fill="#fff"/>
    <ellipse id="Ellipse_108" data-name="Ellipse 108" cx="1.356" cy="1.356" rx="1.356" ry="1.356" transform="translate(13.186 7.923)" fill="#3e4347"/>
    <path id="Path_592" data-name="Path 592" d="M293.78,238.818a3.143,3.143,0,0,1-1.444-1.043,1.351,1.351,0,0,1,.8-.319c.633,0,.633.43,1.266.43s.633-.43,1.266-.43.632.43,1.264.43a.936.936,0,0,0,.41-.085A3.189,3.189,0,0,1,293.78,238.818Z" transform="translate(-280.012 -227.558)" fill="#65b1ef"/>
    <path id="Path_593" data-name="Path 593" d="M319.344,237.44a1.04,1.04,0,0,0,.222.311,1.361,1.361,0,0,0,1.919,0,1.2,1.2,0,0,0,.235-.337.692.692,0,0,0-.114-.006c-.629,0-.629.432-1.264.432C319.814,237.84,319.725,237.541,319.344,237.44Z" transform="translate(-305.986 -227.512)" fill="#59a5e0"/>
    <path id="Path_594" data-name="Path 594" d="M315.563,84.728a9.282,9.282,0,0,1-2.148-1.7c-.24-.221-1.686-1.714-1.955-1.924l-.084.045a3.959,3.959,0,0,0,1.534,2.45,6.753,6.753,0,0,0,2.622,1.22Z" transform="translate(-298.288 -77.415)" fill="#3e4347"/>
    <path id="Path_595" data-name="Path 595" d="M379.248,292.356a10.345,10.345,0,0,1,1.074-2.5,10.358,10.358,0,0,1,1.074,2.5,1.074,1.074,0,0,1-2.148,0Z" transform="translate(-363.412 -277.877)" fill="#59a5e0"/>
  </g>
</svg>
