<svg xmlns="http://www.w3.org/2000/svg" width="175.26" height="135.82" viewBox="0 0 175.26 135.82">
  <g id="foot_logo" transform="translate(-199 -7900)">
    <path id="Union_22" data-name="Union 22" d="M0,98.421V92.339H.021A29.27,29.27,0,0,0,7.78,91.6a4.883,4.883,0,0,0,3.242-2.581,15.387,15.387,0,0,0,.833-5.9V28.559c0-2.812-.343-4.7-1.019-5.622S8.7,21.555,6.484,21.555H.371V15.472l29.084-4.609H37.42V26.479a19.624,19.624,0,0,0-1.486-3.6A13.237,13.237,0,0,0,33.706,19.7a7.729,7.729,0,0,0-1.965-1.454,9.581,9.581,0,0,0-2.463-.862c-.278-.059-.564-.108-.851-.147a17.429,17.429,0,0,0-2.371-.143c-.474,0-.977.012-1.63.039-.321.014-.649.03-.966.046h-.005c-.862.042-1.753.087-2.625.087a13.385,13.385,0,0,1-4.59-.663.383.383,0,0,0-.133-.025.362.362,0,0,0-.061.006.366.366,0,0,0-.266.194.392.392,0,0,0,.006.36c.386.771.738,1.608,1.077,2.418a25.345,25.345,0,0,0,1.851,3.806,11.4,11.4,0,0,0,6.924,5.187,10.9,10.9,0,0,0,2.311.272c.166,0,.336.007.519.007.565,0,1.144-.02,1.706-.04s1.131-.039,1.695-.039a11.975,11.975,0,0,1,2.791.271,1.206,1.206,0,0,0,.274.037.638.638,0,0,0,.108-.008.422.422,0,0,0,.37-.429c.092-1.088-1.937-3.913-4.953-4.92-.77-.257-1.578-.481-2.34-.689a.12.12,0,0,1-.095-.127.128.128,0,0,1,.1-.122h.006l.019,0,.014,0c.763.095,1.382.19,1.946.3a8.239,8.239,0,0,1,5.814,3.627,11.24,11.24,0,0,1,1.6,4.222l.064,1.815c-.008.1-.019.207-.033.308a.283.283,0,0,0,.051.206l.029.806a62.04,62.04,0,0,1,4.4-11.916,42.292,42.292,0,0,1,6.7-10.293A24.683,24.683,0,0,1,54.81,7.012a30.581,30.581,0,0,1,7.7-3c.887-.221,1.785-.407,2.679-.56a71.658,71.658,0,0,1,12.667-.771c8.771.069,17.663.638,25.874-2.584a1.13,1.13,0,0,1,.613-.081,1.186,1.186,0,0,1,.886,1.727c-2.951,6.445-4.982,13.93-8.586,20.04-4.834,8.188-12.052,14.6-21.359,17.2A34.968,34.968,0,0,1,68,40.094c-2.325.141-4.692.14-7.058.14-4.862,0-9.718,0-14.181,1.226a3.125,3.125,0,0,1-1.206.132c-4.093-.5,2.3-13.115,13.923-17.448,2.373-.886,4.848-1.668,7.339-2.44a.405.405,0,0,0-.059-.788.326.326,0,0,0-.124,0c-2.073.33-4.117.7-6.131,1.158C52.92,23.8,46.45,27.368,42.484,34.207a36.041,36.041,0,0,0-4.4,12.04l.08,2.221V83.122a12.856,12.856,0,0,0,1.019,5.9,5.817,5.817,0,0,0,3.89,2.581,42.025,42.025,0,0,0,9.354.737v6.082H0Z" transform="translate(199 7900)" fill="#ff6c66"/>
    <path id="Path_141" data-name="Path 141" d="M16.29-14.28a5.654,5.654,0,0,1-1.305,3.75A6.754,6.754,0,0,1,11.43-8.37L16.38,0H14.1L9.3-8.16H4.59V0H2.55V-20.22H9.69a7.848,7.848,0,0,1,2.79.465,6.112,6.112,0,0,1,2.07,1.26,5.424,5.424,0,0,1,1.29,1.875A6.023,6.023,0,0,1,16.29-14.28Zm-2.07,0a3.83,3.83,0,0,0-1.155-2.94A4.769,4.769,0,0,0,9.69-18.3H4.59v8.25H9.51a4.952,4.952,0,0,0,3.45-1.14A3.959,3.959,0,0,0,14.22-14.28ZM20.7-6.36a5.7,5.7,0,0,0,1.485,3.72A5.02,5.02,0,0,0,25.92-1.32a10.454,10.454,0,0,0,2-.2A7.97,7.97,0,0,0,29.76-2.1l.45,1.44a10.847,10.847,0,0,1-2.04.675A10.853,10.853,0,0,1,25.74.27,6.473,6.473,0,0,1,20.5-1.77,8.225,8.225,0,0,1,18.78-7.26a10.881,10.881,0,0,1,.39-2.97,6.757,6.757,0,0,1,1.185-2.385A5.466,5.466,0,0,1,22.38-14.19a6.946,6.946,0,0,1,2.94-.57,5.417,5.417,0,0,1,4.23,1.59,6.285,6.285,0,0,1,1.44,4.38,10.423,10.423,0,0,1-.075,1.29,7.932,7.932,0,0,1-.225,1.14Zm4.62-6.9a4.69,4.69,0,0,0-2.025.405,3.748,3.748,0,0,0-1.41,1.14,5.217,5.217,0,0,0-.84,1.74A9.885,9.885,0,0,0,20.7-7.77h8.37a1.647,1.647,0,0,0,.06-.54v-.48a5.432,5.432,0,0,0-.87-3.315A3.449,3.449,0,0,0,25.32-13.26ZM36.72-6.9a6.276,6.276,0,0,0,.36,2.16,5.334,5.334,0,0,0,.99,1.71,4.582,4.582,0,0,0,1.47,1.125,4.158,4.158,0,0,0,1.83.405,4.4,4.4,0,0,0,1.635-.315,3.412,3.412,0,0,0,1.38-1.02,5.428,5.428,0,0,0,.945-1.83,9.21,9.21,0,0,0,.36-2.775A6.38,6.38,0,0,0,44.55-11.6a3.624,3.624,0,0,0-2.91-1.365,5.428,5.428,0,0,0-2.745.75,6.758,6.758,0,0,0-2.175,1.98Zm-.39-7.59.42,2.55a7.794,7.794,0,0,1,.855-.96,6.547,6.547,0,0,1,1.2-.915,7.344,7.344,0,0,1,1.5-.675,5.51,5.51,0,0,1,1.725-.27,5,5,0,0,1,2.445.585,5.187,5.187,0,0,1,1.77,1.59,7.382,7.382,0,0,1,1.065,2.34,10.729,10.729,0,0,1,.36,2.805,11.658,11.658,0,0,1-.435,3.36,6.958,6.958,0,0,1-1.23,2.415A5.016,5.016,0,0,1,44.115-.21,5.951,5.951,0,0,1,41.7.27a5.072,5.072,0,0,1-2.88-.84,5.635,5.635,0,0,1-1.89-2.01l-.21.06V5.82H34.71V-14.49ZM53.55,0H51.51V-20.31h2.04ZM59.4-6.36a5.7,5.7,0,0,0,1.485,3.72A5.02,5.02,0,0,0,64.62-1.32a10.454,10.454,0,0,0,2-.2A7.97,7.97,0,0,0,68.46-2.1l.45,1.44a10.847,10.847,0,0,1-2.04.675A10.853,10.853,0,0,1,64.44.27,6.473,6.473,0,0,1,59.2-1.77,8.225,8.225,0,0,1,57.48-7.26a10.881,10.881,0,0,1,.39-2.97,6.757,6.757,0,0,1,1.185-2.385A5.466,5.466,0,0,1,61.08-14.19a6.946,6.946,0,0,1,2.94-.57,5.417,5.417,0,0,1,4.23,1.59,6.285,6.285,0,0,1,1.44,4.38,10.424,10.424,0,0,1-.075,1.29,7.932,7.932,0,0,1-.225,1.14Zm4.62-6.9a4.69,4.69,0,0,0-2.025.405,3.748,3.748,0,0,0-1.41,1.14,5.217,5.217,0,0,0-.84,1.74A9.885,9.885,0,0,0,59.4-7.77h8.37a1.647,1.647,0,0,0,.06-.54v-.48a5.432,5.432,0,0,0-.87-3.315A3.449,3.449,0,0,0,64.02-13.26ZM75.42,0H73.41V-14.49H75l.45,2.52a8.556,8.556,0,0,1,.9-.945,7.5,7.5,0,0,1,1.215-.9,7.461,7.461,0,0,1,1.485-.675,5.469,5.469,0,0,1,1.74-.27,4.515,4.515,0,0,1,3.6,1.485A6.134,6.134,0,0,1,85.68-9.12V0H83.7V-9.12a4.27,4.27,0,0,0-.87-2.835,2.967,2.967,0,0,0-2.4-1.035,5.4,5.4,0,0,0-2.865.8A7.236,7.236,0,0,0,75.42-10.23ZM92.4,0H90.36V-14.49H92.4ZM89.94-19.2a1.423,1.423,0,0,1,.375-1.005,1.379,1.379,0,0,1,1.065-.4,1.37,1.37,0,0,1,1.08.4,1.458,1.458,0,0,1,.36,1.005,1.458,1.458,0,0,1-.36,1,1.37,1.37,0,0,1-1.08.405,1.379,1.379,0,0,1-1.065-.405A1.423,1.423,0,0,1,89.94-19.2ZM100.86-1.26a4.161,4.161,0,0,0,2.73-.705,2.233,2.233,0,0,0,.81-1.755,2.133,2.133,0,0,0-.285-1.11,2.657,2.657,0,0,0-.78-.825,5.338,5.338,0,0,0-1.17-.6q-.675-.255-1.425-.495A12.71,12.71,0,0,1,99.12-7.4a6.4,6.4,0,0,1-1.38-.885,3.975,3.975,0,0,1-.96-1.2,3.322,3.322,0,0,1-.36-1.56A3.157,3.157,0,0,1,97.8-13.8a6.408,6.408,0,0,1,3.72-.96,11.76,11.76,0,0,1,2.34.225,8.367,8.367,0,0,1,1.98.645,5.933,5.933,0,0,1-.225.75q-.135.36-.225.69a8.771,8.771,0,0,0-1.71-.555,9.361,9.361,0,0,0-1.98-.195,4.414,4.414,0,0,0-2.535.585,1.809,1.809,0,0,0-.825,1.545,1.908,1.908,0,0,0,.87,1.71,8.8,8.8,0,0,0,2.25.99,10.938,10.938,0,0,1,3.645,1.8,3.53,3.53,0,0,1,1.275,2.88,3.549,3.549,0,0,1-1.3,2.88A6.425,6.425,0,0,1,100.95.27,14.529,14.529,0,0,1,98.415.06a6.993,6.993,0,0,1-2-.63q.09-.36.225-.75t.225-.72a11.123,11.123,0,0,0,1.86.555A10.137,10.137,0,0,0,100.86-1.26ZM112.29,0h-2.01V-20.31h2.01V-12a7.709,7.709,0,0,1,.9-.93,7.745,7.745,0,0,1,1.23-.885,7.735,7.735,0,0,1,1.515-.675,5.51,5.51,0,0,1,1.725-.27,4.515,4.515,0,0,1,3.6,1.485,6.134,6.134,0,0,1,1.29,4.155V0H120.6V-9.12a4.221,4.221,0,0,0-.885-2.835A3.011,3.011,0,0,0,117.3-12.99a5.643,5.643,0,0,0-2.88.765,6.665,6.665,0,0,0-2.13,1.9Zm22.74-3.09-3.18-7.41q-.6-1.44-.99-2.655t-.75-2.565h-.09q.12.69.225,1.47t.18,1.56q.075.78.12,1.5t.045,1.29V0h-3.78V-20.22h4.38l4.08,9.3a24.8,24.8,0,0,1,1.005,2.64,14.587,14.587,0,0,1,.555,2.4h.06a14.588,14.588,0,0,1,.555-2.4,24.8,24.8,0,0,1,1.005-2.64l4.08-9.3h4.38V0h-3.78V-9.9q0-.57.045-1.29t.12-1.5q.075-.78.18-1.56t.225-1.47h-.09q-.36,1.35-.75,2.565t-.99,2.655l-3.18,7.41Zm32.73-7.11q0,5.04-2.655,7.62T157.41,0h-6.3V-20.22h6.3q5.04,0,7.7,2.565T167.76-10.2Zm-3.9,0a9.28,9.28,0,0,0-.45-3.075,5.237,5.237,0,0,0-1.275-2.07A4.889,4.889,0,0,0,160.11-16.5a9.387,9.387,0,0,0-2.7-.36h-2.4v13.5h2.4a8.713,8.713,0,0,0,2.7-.39,4.916,4.916,0,0,0,2.025-1.23,5.634,5.634,0,0,0,1.275-2.13A9.416,9.416,0,0,0,163.86-10.2Zm6.54,8.25a2.379,2.379,0,0,1,.63-1.635,2.288,2.288,0,0,1,1.8-.7,2.288,2.288,0,0,1,1.8.7,2.379,2.379,0,0,1,.63,1.635,2.379,2.379,0,0,1-.63,1.635,2.288,2.288,0,0,1-1.8.705,2.288,2.288,0,0,1-1.8-.705A2.379,2.379,0,0,1,170.4-1.95Z" transform="translate(199 8030)" fill="#ff6c66"/>
  </g>
</svg>
