<svg xmlns="http://www.w3.org/2000/svg" xmlns:xlink="http://www.w3.org/1999/xlink" width="200" height="200" viewBox="0 0 200 200">
  <defs>
    <filter id="Ellipse_7" x="0" y="0" width="200" height="200" filterUnits="userSpaceOnUse">
      <feOffset input="SourceAlpha"/>
      <feGaussianBlur stdDeviation="8" result="blur"/>
      <feFlood flood-opacity="0.141"/>
      <feComposite operator="in" in2="blur"/>
      <feComposite in="SourceGraphic"/>
    </filter>
    <filter id="Ellipse_37" x="20" y="20" width="160" height="160" filterUnits="userSpaceOnUse">
      <feOffset input="SourceAlpha"/>
      <feGaussianBlur stdDeviation="8" result="blur-2"/>
      <feFlood flood-opacity="0.141"/>
      <feComposite operator="in" in2="blur-2"/>
      <feComposite in="SourceGraphic"/>
    </filter>
  </defs>
  <g id="icon3" transform="translate(-152 -4785)">
    <g transform="matrix(1, 0, 0, 1, 152, 4785)" filter="url(#Ellipse_7)">
      <g id="Ellipse_7-2" data-name="Ellipse 7" transform="translate(25 25)" fill="#fff" stroke="#2c99cb" stroke-width="1" opacity="0.2">
        <circle cx="75" cy="75" r="75" stroke="none"/>
        <circle cx="75" cy="75" r="75.5" fill="none"/>
      </g>
    </g>
    <g transform="matrix(1, 0, 0, 1, 152, 4785)" filter="url(#Ellipse_37)">
      <g id="Ellipse_37-2" data-name="Ellipse 37" transform="translate(45 45)" fill="#fff" stroke="#2c99cb" stroke-width="1">
        <circle cx="55" cy="55" r="55" stroke="none"/>
        <circle cx="55" cy="55" r="55.5" fill="none"/>
      </g>
    </g>
    <g id="Icon_ionic-ios-chatbubbles" data-name="Icon ionic-ios-chatbubbles" transform="translate(226.269 4860.245)">
      <path id="Path_125" data-name="Path 125" d="M40.548,31.415a2.492,2.492,0,0,1,.339-1.255,3.464,3.464,0,0,1,.216-.319,16.667,16.667,0,0,0,2.839-9.289c.031-9.484-7.972-17.178-17.867-17.178A17.744,17.744,0,0,0,8.558,17.045a16.53,16.53,0,0,0-.381,3.518,17.449,17.449,0,0,0,17.59,17.394,21.184,21.184,0,0,0,4.855-.792c1.162-.319,2.314-.741,2.613-.854a2.72,2.72,0,0,1,.957-.175,2.674,2.674,0,0,1,1.039.206l5.832,2.068a1.391,1.391,0,0,0,.4.1.819.819,0,0,0,.823-.823,1.322,1.322,0,0,0-.051-.278Z" transform="translate(2.223 0)" fill="#2c99cb"/>
      <path id="Path_126" data-name="Path 126" d="M31.2,34.4c-.37.1-.843.216-1.358.329a18.985,18.985,0,0,1-3.5.463A17.449,17.449,0,0,1,8.755,17.8a19.447,19.447,0,0,1,.154-2.2c.062-.442.134-.885.237-1.317.1-.463.226-.926.36-1.378l-.823.73a15.308,15.308,0,0,0-5.308,11.51,15.137,15.137,0,0,0,2.551,8.435c.237.36.37.638.329.823s-1.224,6.378-1.224,6.378a.825.825,0,0,0,.278.792.838.838,0,0,0,.525.185.738.738,0,0,0,.3-.062L11.9,39.42a1.607,1.607,0,0,1,1.234.021,17.312,17.312,0,0,0,6.244,1.234,16.155,16.155,0,0,0,12.354-5.668s.329-.453.71-.987C32.063,34.154,31.631,34.288,31.2,34.4Z" transform="translate(0 4.411)" fill="#2c99cb"/>
    </g>
  </g>
</svg>
