<svg xmlns="http://www.w3.org/2000/svg" width="16" height="16" viewBox="0 0 16 16">
  <path id="Icon_material-message" data-name="Icon material-message" d="M17.4,3H4.6A1.6,1.6,0,0,0,3.008,4.6L3,19l3.2-3.2H17.4A1.6,1.6,0,0,0,19,14.2V4.6A1.6,1.6,0,0,0,17.4,3Zm-1.6,9.6H6.2V11h9.6Zm0-2.4H6.2V8.6h9.6Zm0-2.4H6.2V6.2h9.6Z" transform="translate(-3 -3)" fill="#ff6c66"/>
</svg>
