<svg xmlns="http://www.w3.org/2000/svg" width="21" height="5" viewBox="0 0 21 5">
  <path id="dot_op" d="M0,18.5A2.5,2.5,0,1,1,2.5,21,2.5,2.5,0,0,1,0,18.5Zm0-8A2.5,2.5,0,1,1,2.5,13,2.5,2.5,0,0,1,0,10.5Zm0-8A2.5,2.5,0,1,1,2.5,5,2.5,2.5,0,0,1,0,2.5Z" transform="translate(21) rotate(90)" fill="#999"/>
</svg>
